src/dump.vcd
$date
	Sat Aug 16 15:50:06 2025
$end
$version
	QuestaSim Version 10.6c
$end
$timescale
	1ns
$end

$scope module uvm_root $end
$upscope $end

$scope module top $end
$var reg 1 ! clk $end

$scope module DUT $end
$var parameter 32 " OPERAND_WIDTH $end
$var parameter 32 # CMD_WIDTH $end
$var wire 1 $ CLK $end
$var wire 1 % RST $end
$var wire 1 & MODE $end
$var wire 1 ' CE $end
$var wire 1 ( CIN $end
$var wire 1 ) CMD [3] $end
$var wire 1 * CMD [2] $end
$var wire 1 + CMD [1] $end
$var wire 1 , CMD [0] $end
$var wire 1 - INP_VALID [1] $end
$var wire 1 . INP_VALID [0] $end
$var wire 1 / OPA [7] $end
$var wire 1 0 OPA [6] $end
$var wire 1 1 OPA [5] $end
$var wire 1 2 OPA [4] $end
$var wire 1 3 OPA [3] $end
$var wire 1 4 OPA [2] $end
$var wire 1 5 OPA [1] $end
$var wire 1 6 OPA [0] $end
$var wire 1 7 OPB [7] $end
$var wire 1 8 OPB [6] $end
$var wire 1 9 OPB [5] $end
$var wire 1 : OPB [4] $end
$var wire 1 ; OPB [3] $end
$var wire 1 < OPB [2] $end
$var wire 1 = OPB [1] $end
$var wire 1 > OPB [0] $end
$var reg 1 ? ERR $end
$var reg 1 @ OFLOW $end
$var reg 1 A E $end
$var reg 1 B G $end
$var reg 1 C L $end
$var wire 1 D COUT $end
$var reg 16 E RES [15:0] $end
$var reg 4 F t_CMD [3:0] $end
$var reg 8 G t_OPA [7:0] $end
$var reg 8 H t_OPB [7:0] $end
$var reg 1 I t_CIN $end
$var reg 1 J temp_ovr_cin $end
$var reg 1 K t_MODE $end
$var reg 1 L TEMP_MODE $end
$var reg 4 M TEMP_CMD [3:0] $end
$var reg 2 N t_INP_VALID [1:0] $end
$var reg 8 O shf_MUL [7:0] $end
$var reg 16 P t_MUL [15:0] $end
$var reg 8 Q temp_ovr_a [7:0] $end
$var reg 8 R temp_ovr_b [7:0] $end
$upscope $end
$upscope $end

$scope begin uvm_pkg $end
$var parameter 32 S UVM_HDL_MAX_WIDTH $end
$var parameter 32 T UVM_STREAMBITS $end
$var parameter 32 U UVM_RADIX $end
$var parameter 32 V UVM_MACRO_NUMFLAGS $end
$var parameter 32 W UVM_DEFAULT $end
$var parameter 32 X UVM_ALL_ON $end
$var parameter 32 Y UVM_FLAGS_ON $end
$var parameter 32 Z UVM_FLAGS_OFF $end
$var parameter 32 [ UVM_COPY $end
$var parameter 32 \ UVM_NOCOPY $end
$var parameter 32 ] UVM_COMPARE $end
$var parameter 32 ^ UVM_NOCOMPARE $end
$var parameter 32 _ UVM_PRINT $end
$var parameter 32 ` UVM_NOPRINT $end
$var parameter 32 a UVM_RECORD $end
$var parameter 32 b UVM_NORECORD $end
$var parameter 32 c UVM_PACK $end
$var parameter 32 d UVM_NOPACK $end
$var parameter 32 e UVM_PHYSICAL $end
$var parameter 32 f UVM_ABSTRACT $end
$var parameter 32 g UVM_READONLY $end
$var parameter 32 h UVM_NODEFPRINT $end
$var parameter 32 i UVM_MACRO_EXTRAS $end
$var parameter 32 j UVM_FLAGS $end
$var parameter 32 k UVM_UNPACK $end
$var parameter 32 l UVM_CHECK_FIELDS $end
$var parameter 32 m UVM_END_DATA_EXTRA $end
$var parameter 32 n UVM_START_FUNCS $end
$var parameter 32 o UVM_SET $end
$var parameter 32 p UVM_SETINT $end
$var parameter 32 q UVM_SETOBJ $end
$var parameter 32 r UVM_SETSTR $end
$var parameter 32 s UVM_END_FUNCS $end
$var parameter 32 t UVM_STR_CRC_POLYNOMIAL $end
$var parameter 32 u UVM_STDOUT $end
$var parameter 32 v UVM_LINE_WIDTH $end
$var parameter 32 w UVM_NUM_LINES $end
$var parameter 32 x UVM_SMALL_STRING $end
$var parameter 32 y UVM_LARGE_STRING $end
$var reg 1 z uvm_start_uvm_declarations $end
$var integer 32 { uvm_global_random_seed $end
$var integer 32 | UVM_UNBOUNDED_CONNECTIONS $end

$scope function uvm_hdl_check_path $end
$var integer 32 } uvm_hdl_check_path $end
$upscope $end

$scope function uvm_hdl_deposit $end
$var integer 32 ~ uvm_hdl_deposit $end
$var reg 1024 !! value [1023:0] $end
$upscope $end

$scope function uvm_hdl_force $end
$var integer 32 "! uvm_hdl_force $end
$var reg 1024 #! value [1023:0] $end
$upscope $end

$scope task uvm_hdl_force_time $end
$var reg 1024 $! value [1023:0] $end
$var time 64 %! force_time $end
$upscope $end

$scope function uvm_hdl_release_and_read $end
$var integer 32 &! uvm_hdl_release_and_read $end
$var reg 1024 '! value [1023:0] $end
$upscope $end

$scope function uvm_hdl_release $end
$var integer 32 (! uvm_hdl_release $end
$upscope $end

$scope function uvm_hdl_read $end
$var integer 32 )! uvm_hdl_read $end
$var reg 1024 *! value [1023:0] $end
$upscope $end

$scope function uvm_dpi_get_next_arg_c $end
$upscope $end

$scope function uvm_dpi_get_tool_name_c $end
$upscope $end

$scope function uvm_dpi_get_tool_version_c $end
$upscope $end

$scope function uvm_dpi_get_next_arg $end
$upscope $end

$scope function uvm_dpi_get_tool_name $end
$upscope $end

$scope function uvm_dpi_get_tool_version $end
$upscope $end

$scope function uvm_dpi_regcomp $end
$upscope $end

$scope function uvm_dpi_regexec $end
$var integer 32 +! uvm_dpi_regexec $end
$upscope $end

$scope function uvm_dpi_regfree $end
$upscope $end

$scope function uvm_re_match $end
$var integer 32 ,! uvm_re_match $end
$upscope $end

$scope function uvm_dump_re_cache $end
$upscope $end

$scope function uvm_glob_to_re $end
$upscope $end

$scope function uvm_revision_string $end
$upscope $end

$scope function uvm_radix_to_string $end
$var integer 32 -! radix $end
$upscope $end

$scope function uvm_instance_scope $end
$var reg 8 .! c [7:0] $end
$var integer 32 /! pos $end
$upscope $end

$scope function uvm_oneway_hash $end
$var integer 32 0! uvm_oneway_hash $end
$var integer 32 1! seed $end
$var reg 1 2! msb $end
$var reg 8 3! current_byte [7:0] $end
$var reg 32 4! crc1 [31:0] $end
$upscope $end

$scope function uvm_create_random_seed $end
$var integer 32 5! uvm_create_random_seed $end
$upscope $end

$scope function uvm_object_value_str $end
$upscope $end

$scope function uvm_leaf_scope $end
$var reg 8 6! scope_separator [7:0] $end
$var reg 8 7! bracket_match [7:0] $end
$var integer 32 8! pos $end
$var integer 32 9! bmatches $end
$upscope $end

$scope function uvm_vector_to_string $end
$var reg 4096 :! value [4095:0] $end
$var integer 32 ;! size $end
$var integer 32 <! radix $end
$upscope $end

$scope function uvm_get_array_index_int $end
$var integer 32 =! uvm_get_array_index_int $end
$var reg 1 >! is_wildcard $end
$var integer 32 ?! i $end
$upscope $end

$scope function uvm_get_array_index_string $end
$var reg 1 @! is_wildcard $end
$var integer 32 A! i $end
$upscope $end

$scope function uvm_is_array $end
$var reg 1 B! uvm_is_array $end
$upscope $end

$scope function uvm_has_wildcard $end
$upscope $end

$scope task run_test $end
$upscope $end

$scope function global_stop_request $end
$upscope $end

$scope function set_global_timeout $end
$var time 64 C! timeout $end
$var reg 1 D! overridable $end
$upscope $end

$scope function set_global_stop_timeout $end
$var time 64 E! timeout $end
$upscope $end

$scope function uvm_report_enabled $end
$var reg 1 F! uvm_report_enabled $end
$var integer 32 G! verbosity $end
$var reg 2 H! severity [1:0] $end
$upscope $end

$scope function uvm_report $end
$var reg 2 I! severity [1:0] $end
$var integer 32 J! verbosity $end
$var integer 32 K! line $end
$upscope $end

$scope function uvm_report_info $end
$var integer 32 L! verbosity $end
$var integer 32 M! line $end
$upscope $end

$scope function uvm_report_warning $end
$var integer 32 N! verbosity $end
$var integer 32 O! line $end
$upscope $end

$scope function uvm_report_error $end
$var integer 32 P! verbosity $end
$var integer 32 Q! line $end
$upscope $end

$scope function uvm_report_fatal $end
$var integer 32 R! verbosity $end
$var integer 32 S! line $end
$upscope $end

$scope function uvm_string_to_severity $end
$var reg 1 T! uvm_string_to_severity $end
$var reg 2 U! sev [1:0] $end
$upscope $end

$scope function uvm_string_to_action $end
$upscope $end

$scope function set_config_int $end
$var reg 4096 V! value [4095:0] $end
$upscope $end

$scope function set_config_object $end
$var reg 1 W! clone $end
$upscope $end

$scope function set_config_string $end
$upscope $end

$scope function uvm_is_match $end
$var reg 1 X! uvm_is_match $end
$upscope $end

$scope function uvm_string_to_bits $end
$var reg 115200 Y! uvm_string_to_bits [115199:0] $end
$upscope $end

$scope function uvm_bits_to_string $end
$var reg 115200 Z! str [115199:0] $end
$upscope $end

$scope task uvm_wait_for_nba_region $end
$var integer 32 [! nba $end
$var integer 32 \! next_nba $end
$upscope $end

$scope function uvm_split_string $end
$upscope $end

$scope function uvm_hdl_concat2string $end
$upscope $end
$upscope $end

$scope begin alu_pkg $end
$upscope $end

$scope begin alu_top_sv_unit $end
$upscope $end

$scope begin std $end
$upscope $end

$scope begin questa_uvm_pkg $end
$upscope $end
$enddefinitions $end
#0
$dumpvars
0!
x?
x@
xA
xB
xC
bx E
bx F
bx G
bx H
xI
xJ
xK
xL
bx M
bx N
bx O
bx P
bx Q
bx R
0@!
0B!
0T!
b0 U!
bx Y!
bx Z!
bx !!
bx #!
bx $!
bx '!
bx *!
1z
12!
b1110001 3!
b11011110001000001010011110111111 4!
b1 :!
0>!
0D!
0F!
b0 H!
b0 I!
bx V!
0W!
0X!
b1000 "
b100 #
b10000000000 S
b1000000000000 T
b1111000000000000000000000000 U
b10001 V
b10101010101 W
b101010101 X
b101010101 Y
b0 Z
b1 [
b10 \
b100 ]
b1000 ^
b10000 _
b100000 `
b1000000 a
b10000000 b
b100000000 c
b1000000000 d
b10000000000000 e
b100000000000000 f
b1000000000000000 g
b10000000000000000 h
b100000000000000000 i
b100000000000000001 j
b100000000000000010 k
b100000000000000011 l
b100000000000000100 m
b100000000000000101 n
b100000000000000110 o
b100000000000000110 p
b100000000000000111 q
b100000000000001000 r
b100000000000001000 s
b100110000010001110110110110 t
b1 u
b1111000 v
b1111000 w
b1110111111 x
b11100000111111111 y
b0 -!
b101110 6!
b0 7!
b101011 8!
b11111111111111111111111111111111 9!
b0 A!
b0 }
b0 ~
b0 "!
b0 &!
b0 (!
b0 )!
b1 +!
b0 ,!
b1101001011000001111100000011110 {
b101110 .!
b111 /!
b10101001101110011101011100111111 0!
b1101001011000001111100000011110 1!
b100010010100011111100101110111 5!
b100000 ;!
b10000000000000000000000000 <!
b0 =!
b0 ?!
b111110100 G!
b0 J!
b0 K!
b11001000 L!
b11011001 M!
b0 N!
b0 O!
b0 P!
b0 Q!
b0 R!
b0 S!
b100100 [!
b100100 \!
b11111111111111111111111111111111 |
bx %!
bx C!
bx E!
0$
x%
x&
x'
x(
x,
x+
x*
x)
x.
x-
x6
x5
x4
x3
x2
x1
x0
x/
x>
x=
x<
x;
x:
x9
x8
x7
xD
$end
#5
1!
1$
b0 G
b0 H
b0 F
b0 Q
b0 R
0K
b0 N
0I
0?
0A
0B
0C
0@
b0 O
#6
1'
0&
1(
0>
0=
1<
0;
0:
19
08
17
06
05
04
03
12
11
00
0/
1.
1-
1,
0+
1*
0)
0%
#10
0!
0$
#15
1!
1$
b110000 G
b10100100 H
0L
b0 M
0J
b101 F
b11 N
1I
b0 E
1?
0D
#20
0!
0$
#25
1!
1$
b110000 Q
b10100100 R
b101 M
1J
0?
b1101011 E
b100101 \!
b10101001101110011101011101000000 5!
b100101 [!
#26
1&
0(
1>
1=
1;
18
07
15
14
13
1/
0.
1+
#30
0!
0$
#35
1!
1$
b0 E
b1101011 E
b10111110 G
b1101111 H
b111 F
1K
b10 N
0I
#40
0!
0$
#45
1!
1$
b10111110 Q
b1101111 R
1L
b111 M
0J
b0 E
b0 P
b1101110 E
#50
0!
0$
#55
1!
1$
b0 E
b1101110 E
b100110 \!
b10101001101110011101011101000010 5!
b100110 [!
#56
0&
1(
0=
1:
08
05
04
03
10
0/
1.
0*
#60
0!
0$
#65
1!
1$
b1110000 G
b111101 H
b11 F
0K
b11 N
1I
b0 E
b1101110 E
#70
0!
0$
#75
1!
1$
b1110000 Q
b111101 R
0L
b11 M
1J
b0 E
b10000010 E
#80
0!
0$
#85
1!
1$
b0 E
b10000010 E
b100111 \!
b10101001101110011101011101000101 5!
b100111 [!
#86
1&
0(
0>
0<
09
18
17
16
15
14
02
1/
0+
#90
0!
0$
#95
1!
1$
b11100111 G
b11011000 H
b1 F
1K
0I
b0 E
b10000010 E
#100
0!
0$
#105
1!
1$
b11100111 Q
b11011000 R
1L
b1 M
0J
b0 E
b1111 E
#110
0!
0$
#115
1!
1$
b0 E
b1111 E
b101000 \!
b10101001101110011101011101001001 5!
b101000 [!
#116
1=
05
00
1*
#120
0!
0$
#125
1!
1$
b10100101 G
b11011010 H
b101 F
b0 E
b1111 E
#130
0!
0$
#135
1!
1$
b10100101 Q
b11011010 R
b101 M
b0 E
b10100100 E
#140
0!
0$
#145
1!
1$
b0 E
b10100100 E
b101001 \!
b10101001101110011101011101001110 5!
b101001 [!
#146
0&
1(
1>
0:
19
08
06
15
12
01
0/
0,
1+
0*
1)
#150
0!
0$
#155
1!
1$
b10110 G
b10101011 H
b1010 F
0K
1I
b0 E
b10100100 E
b101100 O
#160
0!
0$
#165
1!
1$
b10110 Q
b10101011 R
0L
b1010 M
1J
b0 E
b1010101 E
#170
0!
0$
#175
1!
1$
b0 E
b1010101 E
b101010 \!
b10101001101110011101011101010100 5!
b101010 [!
#176
1&
0>
1<
1:
05
1,
0+
0)
#180
0!
0$
#185
1!
1$
b10100 G
b10111110 H
b1 F
1K
b0 E
b1010101 E
b0 O
#190
0!
0$
#195
1!
1$
b10100 Q
b10111110 R
1L
b1 M
b0 E
b101010110 E
1@
#200
0!
0$
#205
1!
1$
b0 E
b101010110 E
b101011 \!
b10101001101110011101011101011011 5!
b101011 [!
#206
1>
0=
09
15
04
13
02
10
1+
#210
0!
0$
#215
1!
1$
b1001010 G
b10011101 H
b11 F
b0 E
b101010110 E
#220
0!
0$
#225
1!
1$
b1001010 Q
b10011101 R
b11 M
b0 E
b110101100 E
#230
0!
0$
#235
1!
1$
b0 E
b110101100 E
b101100 \!
b10101001101110011101011101100011 5!
b101100 [!
#236
0>
1=
0<
0;
0:
19
14
12
11
00
1/
0-
0+
#240
0!
0$
#245
1!
1$
b10111110 G
b10100010 H
b1 F
b1 N
b0 E
b110101100 E
#250
0!
0$
#255
1!
1$
b10111110 Q
b10100010 R
b1 M
b0 E
1?
0@
#260
0!
0$
#265
1!
1$
0?
1?
#266
0(
1>
0=
1<
18
16
05
01
10
0.
1-
#270
0!
0$
#275
1!
1$
b11011101 G
b11100101 H
b10 N
0I
0?
1?
#280
0!
0$
#285
1!
1$
b11011101 Q
b11100101 R
0J
0?
1?
1@
#290
0!
0$
#295
1!
1$
0?
1?
#296
1=
0<
1:
08
15
04
03
00
0/
#300
0!
0$
#305
1!
1$
b10011 G
b10110011 H
0?
1?
#310
0!
0$
#315
1!
1$
b10011 Q
b10110011 R
0?
1?
#320
0!
0$
#325
1!
1$
0?
1?
#326
0=
1;
0:
09
18
06
05
14
13
02
10
1.
#330
0!
0$
#335
1!
1$
b1001100 G
b11001001 H
b11 N
0?
1?
#340
0!
0$
#345
1!
1$
b1001100 Q
b11001001 R
0?
b110000011 E
#350
0!
0$
#355
1!
1$
b0 E
b110000011 E
b101101 \!
b10101001101110011101011101101100 5!
b101101 [!
#356
0&
1<
0;
04
03
11
00
1/
0.
0,
1+
#360
0!
0$
#365
1!
1$
b10100000 G
b11000101 H
b10 F
0K
b10 N
b0 E
b110000011 E
#370
0!
0$
#375
1!
1$
b10100000 Q
b11000101 R
0L
b10 M
b0 E
1?
0@
#380
0!
0$
#385
1!
1$
0?
1?
#386
1(
1=
0<
08
16
12
1.
0-
#390
0!
0$
#395
1!
1$
b10110001 G
b10000011 H
b1 N
1I
0?
1?
#400
0!
0$
#405
1!
1$
b10110001 Q
b10000011 R
1J
0?
1?
#410
0!
0$
#415
1!
1$
0?
1?
#416
0>
0=
1;
1:
06
13
10
0/
0.
1-
#420
0!
0$
#425
1!
1$
b1111000 G
b10011000 H
b10 N
0?
1?
#430
0!
0$
#435
1!
1$
b1111000 Q
b10011000 R
0?
1?
#440
0!
0$
#445
1!
1$
0?
1?
#446
1=
0;
07
16
15
14
01
00
#450
0!
0$
#455
1!
1$
b11111 G
b10010 H
0?
1?
#460
0!
0$
#465
1!
1$
b11111 Q
b10010 R
0?
1?
#470
0!
0$
#475
1!
1$
0?
1?
#476
0=
1<
18
05
04
03
02
11
10
1/
1.
#480
0!
0$
#485
1!
1$
b11100001 G
b1010100 H
b11 N
0?
1?
#490
0!
0$
#495
1!
1$
b11100001 Q
b1010100 R
0?
b11110101 E
#500
0!
0$
#505
1!
1$
b0 E
b11110101 E
b101110 \!
b10101001101110011101011101110110 5!
b101110 [!
#506
1&
0(
1>
1=
17
06
14
12
0/
1,
1*
#510
0!
0$
#515
1!
1$
b1110100 G
b11010111 H
b111 F
1K
0I
b0 E
b11110101 E
#520
0!
0$
#525
1!
1$
b1110100 Q
b11010111 R
1L
b111 M
0J
b0 E
b11010110 E
#530
0!
0$
#535
1!
1$
b0 E
b11010110 E
b101111 \!
b10101001101110011101011110000001 5!
b101111 [!
#536
1(
0>
1;
0:
19
08
04
13
01
00
1/
0*
#540
0!
0$
#545
1!
1$
b10011000 G
b10101110 H
b11 F
1I
b0 E
b11010110 E
#550
0!
0$
#555
1!
1$
b10011000 Q
b10101110 R
b11 M
1J
b0 E
b111101001 E
1@
#560
0!
0$
#565
1!
1$
b0 E
b111101001 E
b110000 \!
b10101001101110011101011110001101 5!
b110000 [!
#566
0(
0=
0<
18
14
11
0-
0,
#570
0!
0$
#575
1!
1$
b10111100 G
b11101000 H
b10 F
b1 N
0I
b0 E
b111101001 E
#580
0!
0$
#585
1!
1$
b10111100 Q
b11101000 R
b10 M
0J
b0 E
1?
0@
#590
0!
0$
#595
1!
1$
0?
1?
#596
1(
1>
1:
07
15
04
03
02
10
0/
#600
0!
0$
#605
1!
1$
b1100010 G
b1111001 H
1I
0?
1?
#610
0!
0$
#615
1!
1$
b1100010 Q
b1111001 R
1J
0?
1?
#620
0!
0$
#625
1!
1$
0?
1?
#626
0(
1=
0:
09
08
05
00
1/
#630
0!
0$
#635
1!
1$
b10100000 G
b1011 H
0I
0?
1?
#640
0!
0$
#645
1!
1$
b10100000 Q
b1011 R
0J
0?
1?
#650
0!
0$
#655
1!
1$
0?
1?
#656
1(
0=
19
18
13
12
10
0/
0.
1-
#660
0!
0$
#665
1!
1$
b1111000 G
b1101001 H
b10 N
1I
0?
1?
#670
0!
0$
#675
1!
1$
b1111000 Q
b1101001 R
1J
0?
1?
#680
0!
0$
#685
1!
1$
0?
1?
#686
1=
1<
1:
09
17
16
15
14
03
02
00
1/
1.
#690
0!
0$
#695
1!
1$
b10100111 G
b11011111 H
b11 N
0?
1?
#700
0!
0$
#705
1!
1$
b10100111 Q
b11011111 R
0?
b110000111 E
1D
#710
0!
0$
#715
1!
1$
b0 E
b110000111 E
b110001 \!
b10101001101110011101011110011010 5!
b110001 [!
#716
0&
0=
0;
08
06
05
04
12
0+
1*
1)
#720
0!
0$
#725
1!
1$
b10110000 G
b10010101 H
b1100 F
0K
b0 E
b110000111 E
#730
0!
0$
#735
1!
1$
b10110000 Q
b10010101 R
0L
b1100 M
b0 E
b10110 E
1?
0D
#740
0!
0$
#745
1!
1$
b0 E
0?
b10110 E
1?
b110010 \!
b10101001101110011101011110101000 5!
b110010 [!
#746
0>
0:
19
07
13
10
#750
0!
0$
#755
1!
1$
b11111000 G
b100100 H
b0 E
0?
b10110 E
1?
#760
0!
0$
#765
1!
1$
b11111000 Q
b100100 R
b0 E
0?
b10001111 E
1?
#770
0!
0$
#775
1!
1$
b0 E
0?
b10001111 E
1?
b110011 \!
b110100 \!
b110101 \!
b110011 [!
b110100 [!
b110101 [!
b110110 \!
b110111 \!
b110110 [!
b110111 [!
b100010010100011111100110001001 5!
b11000110000100000000110111010111 5!
b11101110011011011010100001111110 5!
b10100101010011101001101111000110 5!
b10000101011110000101101001110000 5!
b1101010010000000011110000111011 5!
b1101100011101010110011001001 5!
b10010001011111111101001010110100 5!
b1000100010000100000101001001110 5!
b11000111110000000110000010010110 5!
b10011010111111101001000111111111 5!
b11011001000011001111110000110000 5!
b10011001001001111011000001101101 5!
b11000110010001001111100111001001 5!
b101000000101110110100001011100 5!
b1011000110000000101000001010 5!
b101001110110111100001011011111 5!
b1100111101010101010101000111 5!
b110101101100000000011011111010 5!
b11010110001111011101111111101 5!
b10000000100000100110111000000111 5!
b1011011101111101001001001000011 5!
b1000100010011101010011101110001 5!
b1101010111111011111100100010100 5!
b11110100100000100111100010010 5!
b10111010001000010111000001111110 5!
b11100101011111001001011000010010 5!
b1111101000101101001110110101111 5!
b111000011000110011100110101111 5!
b11011100000111001000010000111110 5!
b100010010100011111100110011100 5!
b11000110000100000000110111101010 5!
b11101110011011011010100010010001 5!
b10100101010011101001101111011001 5!
b10000101011110000101101010000011 5!
b1101010010000000011110001001110 5!
b1101100011101010110011011100 5!
b10010001011111111101001011000111 5!
b1000100010000100000101001100001 5!
b11000111110000000110000010101001 5!
b10011010111111101001001000010010 5!
b11011001000011001111110001000011 5!
b10011001001001111011000010000000 5!
b11000110010001001111100111011100 5!
b101000000101110110100001101111 5!
b1011000110000000101000011101 5!
b101001110110111100001011110010 5!
b1100111101010101010101011010 5!
b110101101100000000011100001101 5!
b11010110001111011110000010000 5!
b10000000100000100110111000011010 5!
b1011011101111101001001001010110 5!
b1000100010011101010011110000100 5!
b1101010111111011111100100100111 5!
b11110100100000100111100100101 5!
b10111010001000010111000010010001 5!
b11100101011111001001011000100101 5!
b1111101000101101001110111000010 5!
b111000011000110011100111000010 5!
b11011100000111001000010001010001 5!
b100010010100011111100110110000 5!
b11000110000100000000110111111110 5!
b11101110011011011010100010100101 5!
b10100101010011101001101111101101 5!
b10000101011110000101101010010111 5!
b1101010010000000011110001100010 5!
b1101100011101010110011110000 5!
b10010001011111111101001011011011 5!
b1000100010000100000101001110101 5!
b11000111110000000110000010111101 5!
b10011010111111101001001000100110 5!
b11011001000011001111110001010111 5!
b10011001001001111011000010010100 5!
b11000110010001001111100111110000 5!
b101000000101110110100010000011 5!
b1011000110000000101000110001 5!
b101001110110111100001100000110 5!
b1100111101010101010101101110 5!
b110101101100000000011100100001 5!
b11010110001111011110000100100 5!
b10000000100000100110111000101110 5!
b1011011101111101001001001101010 5!
b1000100010011101010011110011000 5!
b1101010111111011111100100111011 5!
b11110100100000100111100111001 5!
b10111010001000010111000010100101 5!
b11100101011111001001011000111001 5!
b1111101000101101001110111010110 5!
b111000011000110011100111010110 5!
b11011100000111001000010001100101 5!
b11011100000111001000010001111010 5!
b111000011000110011100111101011 5!
b1111101000101101001110111101011 5!
b10000000100000100110111001000011 5!
b10100101010011101001110000000010 5!
b100010010100011111100111000101 5!
b11000110000100000000111000010011 5!
b11101110011011011010100010111010 5!
b1101010010000000011110001110111 5!
b10000101011110000101101010101100 5!
b11010110001111011110000111001 5!
b10011010111111101001001000111011 5!
b1101100011101010110100000101 5!
b10010001011111111101001011110000 5!
b1000100010000100000101010001010 5!
b11000111110000000110000011010010 5!
b11011001000011001111110001101100 5!
b10011001001001111011000010101001 5!
b110101101100000000011100110110 5!
b11000110010001001111101000000101 5!
b101000000101110110100010011000 5!
b1011000110000000101001000110 5!
b101001110110111100001100011011 5!
b1100111101010101010110000011 5!
b1101010111111011111100101010000 5!
b1011011101111101001001001111111 5!
b1000100010011101010011110101101 5!
b11100101011111001001011001001110 5!
b11110100100000100111101001110 5!
b10111010001000010111000010111010 5!
