src/dump.vcd
$date
	Fri Aug 22 15:30:57 2025
$end
$version
	QuestaSim Version 10.6c
$end
$timescale
	1ns
$end

$scope module uvm_root $end
$upscope $end

$scope module top $end
$var reg 1 ! clk $end

$scope module DUT $end
$var parameter 32 " DW $end
$var parameter 32 # CW $end
$var wire 1 $ OPA [7] $end
$var wire 1 % OPA [6] $end
$var wire 1 & OPA [5] $end
$var wire 1 ' OPA [4] $end
$var wire 1 ( OPA [3] $end
$var wire 1 ) OPA [2] $end
$var wire 1 * OPA [1] $end
$var wire 1 + OPA [0] $end
$var wire 1 , OPB [7] $end
$var wire 1 - OPB [6] $end
$var wire 1 . OPB [5] $end
$var wire 1 / OPB [4] $end
$var wire 1 0 OPB [3] $end
$var wire 1 1 OPB [2] $end
$var wire 1 2 OPB [1] $end
$var wire 1 3 OPB [0] $end
$var wire 1 4 CLK $end
$var wire 1 5 RST $end
$var wire 1 6 CE $end
$var wire 1 7 MODE $end
$var wire 1 8 CIN $end
$var wire 1 9 CMD [3] $end
$var wire 1 : CMD [2] $end
$var wire 1 ; CMD [1] $end
$var wire 1 < CMD [0] $end
$var wire 1 = INP_VALID [1] $end
$var wire 1 > INP_VALID [0] $end
$var reg 10 ? RES [9:0] $end
$var reg 1 @ COUT $end
$var reg 1 A OFLOW $end
$var reg 1 B G $end
$var reg 1 C E $end
$var reg 1 D L $end
$var reg 1 E ERR $end
$var reg 8 F OPA_1 [7:0] $end
$var reg 8 G OPB_1 [7:0] $end
$var reg 8 H oprd1 [7:0] $end
$var reg 8 I oprd2 [7:0] $end
$var reg 4 J CMD_tmp [3:0] $end
$var reg 8 K AU_out_tmp1 [7:0] $end
$var reg 8 L AU_out_tmp2 [7:0] $end
$var reg 5 M wait_counter [4:0] $end
$var reg 1 N oprd1_valid $end
$var reg 1 O oprd2_valid $end
$upscope $end
$upscope $end

$scope begin uvm_pkg $end
$var parameter 32 P UVM_HDL_MAX_WIDTH $end
$var parameter 32 Q UVM_STREAMBITS $end
$var parameter 32 R UVM_RADIX $end
$var parameter 32 S UVM_MACRO_NUMFLAGS $end
$var parameter 32 T UVM_DEFAULT $end
$var parameter 32 U UVM_ALL_ON $end
$var parameter 32 V UVM_FLAGS_ON $end
$var parameter 32 W UVM_FLAGS_OFF $end
$var parameter 32 X UVM_COPY $end
$var parameter 32 Y UVM_NOCOPY $end
$var parameter 32 Z UVM_COMPARE $end
$var parameter 32 [ UVM_NOCOMPARE $end
$var parameter 32 \ UVM_PRINT $end
$var parameter 32 ] UVM_NOPRINT $end
$var parameter 32 ^ UVM_RECORD $end
$var parameter 32 _ UVM_NORECORD $end
$var parameter 32 ` UVM_PACK $end
$var parameter 32 a UVM_NOPACK $end
$var parameter 32 b UVM_PHYSICAL $end
$var parameter 32 c UVM_ABSTRACT $end
$var parameter 32 d UVM_READONLY $end
$var parameter 32 e UVM_NODEFPRINT $end
$var parameter 32 f UVM_MACRO_EXTRAS $end
$var parameter 32 g UVM_FLAGS $end
$var parameter 32 h UVM_UNPACK $end
$var parameter 32 i UVM_CHECK_FIELDS $end
$var parameter 32 j UVM_END_DATA_EXTRA $end
$var parameter 32 k UVM_START_FUNCS $end
$var parameter 32 l UVM_SET $end
$var parameter 32 m UVM_SETINT $end
$var parameter 32 n UVM_SETOBJ $end
$var parameter 32 o UVM_SETSTR $end
$var parameter 32 p UVM_END_FUNCS $end
$var parameter 32 q UVM_STR_CRC_POLYNOMIAL $end
$var parameter 32 r UVM_STDOUT $end
$var parameter 32 s UVM_LINE_WIDTH $end
$var parameter 32 t UVM_NUM_LINES $end
$var parameter 32 u UVM_SMALL_STRING $end
$var parameter 32 v UVM_LARGE_STRING $end
$var reg 1 w uvm_start_uvm_declarations $end
$var integer 32 x uvm_global_random_seed $end
$var integer 32 y UVM_UNBOUNDED_CONNECTIONS $end

$scope function uvm_hdl_check_path $end
$var integer 32 z uvm_hdl_check_path $end
$upscope $end

$scope function uvm_hdl_deposit $end
$var integer 32 { uvm_hdl_deposit $end
$var reg 1024 | value [1023:0] $end
$upscope $end

$scope function uvm_hdl_force $end
$var integer 32 } uvm_hdl_force $end
$var reg 1024 ~ value [1023:0] $end
$upscope $end

$scope task uvm_hdl_force_time $end
$var reg 1024 !! value [1023:0] $end
$var time 64 "! force_time $end
$upscope $end

$scope function uvm_hdl_release_and_read $end
$var integer 32 #! uvm_hdl_release_and_read $end
$var reg 1024 $! value [1023:0] $end
$upscope $end

$scope function uvm_hdl_release $end
$var integer 32 %! uvm_hdl_release $end
$upscope $end

$scope function uvm_hdl_read $end
$var integer 32 &! uvm_hdl_read $end
$var reg 1024 '! value [1023:0] $end
$upscope $end

$scope function uvm_dpi_get_next_arg_c $end
$upscope $end

$scope function uvm_dpi_get_tool_name_c $end
$upscope $end

$scope function uvm_dpi_get_tool_version_c $end
$upscope $end

$scope function uvm_dpi_get_next_arg $end
$upscope $end

$scope function uvm_dpi_get_tool_name $end
$upscope $end

$scope function uvm_dpi_get_tool_version $end
$upscope $end

$scope function uvm_dpi_regcomp $end
$upscope $end

$scope function uvm_dpi_regexec $end
$var integer 32 (! uvm_dpi_regexec $end
$upscope $end

$scope function uvm_dpi_regfree $end
$upscope $end

$scope function uvm_re_match $end
$var integer 32 )! uvm_re_match $end
$upscope $end

$scope function uvm_dump_re_cache $end
$upscope $end

$scope function uvm_glob_to_re $end
$upscope $end

$scope function uvm_revision_string $end
$upscope $end

$scope function uvm_radix_to_string $end
$var integer 32 *! radix $end
$upscope $end

$scope function uvm_instance_scope $end
$var reg 8 +! c [7:0] $end
$var integer 32 ,! pos $end
$upscope $end

$scope function uvm_oneway_hash $end
$var integer 32 -! uvm_oneway_hash $end
$var integer 32 .! seed $end
$var reg 1 /! msb $end
$var reg 8 0! current_byte [7:0] $end
$var reg 32 1! crc1 [31:0] $end
$upscope $end

$scope function uvm_create_random_seed $end
$var integer 32 2! uvm_create_random_seed $end
$upscope $end

$scope function uvm_object_value_str $end
$upscope $end

$scope function uvm_leaf_scope $end
$var reg 8 3! scope_separator [7:0] $end
$var reg 8 4! bracket_match [7:0] $end
$var integer 32 5! pos $end
$var integer 32 6! bmatches $end
$upscope $end

$scope function uvm_vector_to_string $end
$var reg 4096 7! value [4095:0] $end
$var integer 32 8! size $end
$var integer 32 9! radix $end
$upscope $end

$scope function uvm_get_array_index_int $end
$var integer 32 :! uvm_get_array_index_int $end
$var reg 1 ;! is_wildcard $end
$var integer 32 <! i $end
$upscope $end

$scope function uvm_get_array_index_string $end
$var reg 1 =! is_wildcard $end
$var integer 32 >! i $end
$upscope $end

$scope function uvm_is_array $end
$var reg 1 ?! uvm_is_array $end
$upscope $end

$scope function uvm_has_wildcard $end
$upscope $end

$scope task run_test $end
$upscope $end

$scope function global_stop_request $end
$upscope $end

$scope function set_global_timeout $end
$var time 64 @! timeout $end
$var reg 1 A! overridable $end
$upscope $end

$scope function set_global_stop_timeout $end
$var time 64 B! timeout $end
$upscope $end

$scope function uvm_report_enabled $end
$var reg 1 C! uvm_report_enabled $end
$var integer 32 D! verbosity $end
$var reg 2 E! severity [1:0] $end
$upscope $end

$scope function uvm_report $end
$var reg 2 F! severity [1:0] $end
$var integer 32 G! verbosity $end
$var integer 32 H! line $end
$upscope $end

$scope function uvm_report_info $end
$var integer 32 I! verbosity $end
$var integer 32 J! line $end
$upscope $end

$scope function uvm_report_warning $end
$var integer 32 K! verbosity $end
$var integer 32 L! line $end
$upscope $end

$scope function uvm_report_error $end
$var integer 32 M! verbosity $end
$var integer 32 N! line $end
$upscope $end

$scope function uvm_report_fatal $end
$var integer 32 O! verbosity $end
$var integer 32 P! line $end
$upscope $end

$scope function uvm_string_to_severity $end
$var reg 1 Q! uvm_string_to_severity $end
$var reg 2 R! sev [1:0] $end
$upscope $end

$scope function uvm_string_to_action $end
$upscope $end

$scope function set_config_int $end
$var reg 4096 S! value [4095:0] $end
$upscope $end

$scope function set_config_object $end
$var reg 1 T! clone $end
$upscope $end

$scope function set_config_string $end
$upscope $end

$scope function uvm_is_match $end
$var reg 1 U! uvm_is_match $end
$upscope $end

$scope function uvm_string_to_bits $end
$var reg 115200 V! uvm_string_to_bits [115199:0] $end
$upscope $end

$scope function uvm_bits_to_string $end
$var reg 115200 W! str [115199:0] $end
$upscope $end

$scope task uvm_wait_for_nba_region $end
$var integer 32 X! nba $end
$var integer 32 Y! next_nba $end
$upscope $end

$scope function uvm_split_string $end
$upscope $end

$scope function uvm_hdl_concat2string $end
$upscope $end
$upscope $end

$scope begin alu_pkg $end
$var parameter 32 Z! RESULT_WIDTH $end
$upscope $end

$scope begin alu_top_sv_unit $end
$var parameter 32 [! RESULT_WIDTH $end
$upscope $end

$scope begin std $end
$upscope $end

$scope begin questa_uvm_pkg $end
$upscope $end
$enddefinitions $end
#0
$dumpvars
0!
b0zzzzzzzzz ?
z@
zA
zB
zC
zD
zE
bx F
bx G
bx H
bx I
bx J
bx K
bx L
bx M
xN
xO
0=!
0?!
0Q!
b0 R!
bx V!
bx W!
bx |
bx ~
bx !!
bx $!
bx '!
1w
0/!
b1110001 0!
b1010100101101001101100101100010 1!
b1 7!
0;!
0A!
0C!
b0 E!
b0 F!
bx S!
0T!
0U!
b1001 Z!
b1001 [!
b1000 "
b100 #
b10000000000 P
b1000000000000 Q
b1111000000000000000000000000 R
b10001 S
b10101010101 T
b101010101 U
b101010101 V
b0 W
b1 X
b10 Y
b100 Z
b1000 [
b10000 \
b100000 ]
b1000000 ^
b10000000 _
b100000000 `
b1000000000 a
b10000000000000 b
b100000000000000 c
b1000000000000000 d
b10000000000000000 e
b100000000000000000 f
b100000000000000001 g
b100000000000000010 h
b100000000000000011 i
b100000000000000100 j
b100000000000000101 k
b100000000000000110 l
b100000000000000110 m
b100000000000000111 n
b100000000000001000 o
b100000000000001000 p
b100110000010001110110110110 q
b1 r
b1111000 s
b1111000 t
b1110111111 u
b11100000111111111 v
b0 *!
b101110 3!
b0 4!
b101011 5!
b11111111111111111111111111111111 6!
b0 >!
b0 z
b0 {
b0 }
b0 #!
b0 %!
b0 &!
b1 (!
b0 )!
b1101001011000001111100000011110 x
b101110 +!
b111 ,!
b110100001110100001111001001 -!
b1101001011000001111100000011110 .!
b1100010100000111101001000010010 2!
b100000 8!
b10000000000000000000000000 9!
b0 :!
b0 <!
b111110100 D!
b0 G!
b0 H!
b11001000 I!
b11011001 J!
b0 K!
b0 L!
b0 M!
b0 N!
b0 O!
b0 P!
b100100 X!
b100100 Y!
b11111111111111111111111111111111 y
bx "!
bx @!
bx B!
x>
x=
x+
x*
x)
x(
x'
x&
x%
x$
x3
x2
x1
x0
x/
x.
x-
x,
x8
04
x5
x<
x;
x:
x9
x6
x7
$end
#5
1!
14
#6
15
06
17
08
13
02
11
00
0/
0.
1-
0,
0+
1*
1)
1(
0'
1&
1%
0$
1>
1=
0<
0;
0:
09
#10
0!
04
#15
1!
14
b0 H
b0 I
b0 J
b0 M
0N
0O
#20
0!
04
#25
1!
14
b100101 Y!
b110100001110100001111001100 2!
b110100001110100001111001111 2!
b100101 X!
#26
05
07
18
03
12
10
0-
1+
0*
0(
1'
0&
#30
0!
04
#35
1!
14
b1010101 H
b1110 I
1N
1O
#40
0!
04
#45
1!
14
#50
0!
04
#55
1!
14
b100110 Y!
b110100001110100001111010011 2!
b110100001110100001111011000 2!
b100110 X!
#56
15
16
17
02
00
1.
1-
0)
0'
0%
1$
#60
0!
04
#65
1!
14
b0 K
b0 L
b0 H
b0 I
0N
0O
#70
0!
04
#75
1!
14
#80
0!
04
