src/simulation.log
# vsim -vopt work.top -voptargs="+acc=npr" -assertdebug -l simulation.log -coverage -c -do "coverage save -onexit -assert -directive -cvg -codeAll alu_coverage.ucdb; run -all; exit" 
# Start time: 17:18:01 on Aug 17,2025
# ** Note: (vsim-3812) Design is being optimized...
# //  Questa Sim
# //  Version 10.6c linux Jul 25 2017
# //
# //  Copyright 1991-2017 Mentor Graphics Corporation
# //  All Rights Reserved.
# //
# //  QuestaSim and its associated documentation contain trade
# //  secrets and commercial or financial information that are the property of
# //  Mentor Graphics Corporation and are privileged, confidential,
# //  and exempt from disclosure under the Freedom of Information Act,
# //  5 U.S.C. Section 552. Furthermore, this information
# //  is prohibited from disclosure under the Trade Secrets Act,
# //  18 U.S.C. Section 1905.
# //
# Loading sv_std.std
# Loading work.alu_interface(fast)
# Loading mtiUvm.uvm_pkg
# Loading work.alu_pkg(fast)
# Loading work.alu_top_sv_unit(fast)
# Loading work.top(fast)
# Loading work.alu_interface(fast)
# Loading work.alu_design(fast)
# Loading mtiUvm.questa_uvm_pkg(fast)
# Loading /tools/mentor/questasim_10.6c/questasim/uvm-1.1d/linux/uvm_dpi.so
# ** Warning: (vsim-8634) Code was not compiled with coverage options.
# coverage save -onexit -assert -directive -cvg -codeAll alu_coverage.ucdb
#  run -all
# ----------------------------------------------------------------
# UVM-1.1d
# (C) 2007-2013 Mentor Graphics Corporation
# (C) 2007-2013 Cadence Design Systems, Inc.
# (C) 2006-2013 Synopsys, Inc.
# (C) 2011-2013 Cypress Semiconductor Corp.
# ----------------------------------------------------------------
# 
#   ***********       IMPORTANT RELEASE NOTES         ************
# 
#   You are using a version of the UVM library that has been compiled
#   with `UVM_NO_DEPRECATED undefined.
#   See http://www.eda.org/svdb/view.php?id=3313 for more details.
# 
#   You are using a version of the UVM library that has been compiled
#   with `UVM_OBJECT_MUST_HAVE_CONSTRUCTOR undefined.
#   See http://www.eda.org/svdb/view.php?id=3770 for more details.
# 
#       (Specify +UVM_NO_RELNOTES to turn off this notice)
# 
# UVM_INFO verilog_src/questa_uvm_pkg-1.2/src/questa_uvm_pkg.sv(215) @ 0: reporter [Questa UVM] QUESTA_UVM-1.2.3
# UVM_INFO verilog_src/questa_uvm_pkg-1.2/src/questa_uvm_pkg.sv(217) @ 0: reporter [Questa UVM]  questa_uvm::init(+struct)
# UVM_INFO @ 0: reporter [RNTST] Running test alu_regression_test...
# UVM_INFO @ 0: reporter [UVMTOP] UVM testbench topology:
# -----------------------------------------------------------------
# Name                       Type                       Size  Value
# -----------------------------------------------------------------
# uvm_test_top               alu_regression_test        -     @471 
#   alu_environment          alu_environment            -     @478 
#     alu_agent              alu_agent                  -     @493 
#       alu_driv             alu_driver                 -     @531 
#         driv_port          uvm_analysis_port          -     @554 
#         rsp_port           uvm_analysis_port          -     @546 
#         seq_item_port      uvm_seq_item_pull_port     -     @538 
#       alu_mon              alu_monitor                -     @671 
#         mon_port           uvm_analysis_port          -     @678 
#       alu_seqr             alu_sequencer              -     @562 
#         rsp_export         uvm_analysis_export        -     @569 
#         seq_item_export    uvm_seq_item_pull_imp      -     @663 
#         arbitration_queue  array                      0     -    
#         lock_queue         array                      0     -    
#         num_last_reqs      integral                   32    'd1  
#         num_last_rsps      integral                   32    'd1  
#     alu_coverage           alu_coverage               -     @507 
#       cov_driv_port        uvm_analysis_imp_driv_cg   -     @514 
#       cov_mon_port         uvm_analysis_imp_mon_cg    -     @522 
#     alu_scoreboard         alu_scoreboard             -     @500 
#       driv_scb_port        uvm_analysis_imp_driv_scb  -     @697 
#       mon_scb_port         uvm_analysis_imp_mon_scb   -     @705 
# -----------------------------------------------------------------
# 
# Driver @ 0 
#  RST = 1 | CE = 1 | MODE = 1 | CMD =  3 | INP_VALID = 0 | CIN = 1 | OPA =  93 | OPB =  99 
# SENDING RESPONSE 
# Monitor @ 25 
#  RST = 1 | CE = 1 | MODE = 1 | CMD =  3 | INP_VALID = 0 | CIN = 1 | OPA =  93 | OPB =  99 |
# Monitor @ 25 
#  RES =     0 | OFLOW = 0 | COUT = 0 | G = 0 | L = 0 | E = 0 | ERR = 0 |
# Scoreboard :reference input: @ 25 
#  RST = 1 | CE = 1 | MODE = 1 | CMD =  3 | INP_VALID = 0 | CIN = 1 | OPA =  93 | OPB =  99 
#  time =                   25 | reference_results_stored = 0000000000000000000000
# time :                   25 | monitor_results_stored = 0000000000000000000000
# <-----------------------------PASS----------------------------->
#  count =           1 
# Driver @ 25 
#  RST = 0 | CE = 1 | MODE = 0 | CMD = 12 | INP_VALID = 1 | CIN = 1 | OPA = 233 | OPB = 150 
#  count =           2 
# Driver @ 55 
#  RST = 0 | CE = 1 | MODE = 0 | CMD = 12 | INP_VALID = 3 | CIN = 0 | OPA =  36 | OPB = 187 
# Monitor @ 55 
#  RST = 0 | CE = 1 | MODE = 0 | CMD = 12 | INP_VALID = 1 | CIN = 1 | OPA = 233 | OPB = 150 |
# Monitor @ 55 
#  RES =     0 | OFLOW = 0 | COUT = 0 | G = 0 | L = 0 | E = 0 | ERR = 1 |
# Scoreboard :reference input: @ 55 
#  RST = 0 | CE = 1 | MODE = 0 | CMD = 12 | INP_VALID = 3 | CIN = 0 | OPA =  36 | OPB = 187 
#  time =                   55 | reference_results_stored = 0000000000100001000001
# time :                   55 | monitor_results_stored = 0000000000000000000001
# <-----------------------------FAIL----------------------------->
# SENDING RESPONSE 
# Monitor @ 85 
#  RST = 0 | CE = 1 | MODE = 0 | CMD = 12 | INP_VALID = 3 | CIN = 0 | OPA =  36 | OPB = 187 |
# Monitor @ 85 
#  RES =    33 | OFLOW = 0 | COUT = 0 | G = 0 | L = 0 | E = 0 | ERR = 1 |
# Scoreboard :reference input: @ 85 
#  RST = 0 | CE = 1 | MODE = 0 | CMD = 12 | INP_VALID = 3 | CIN = 0 | OPA =  36 | OPB = 187 
#  time =                   85 | reference_results_stored = 0000000000100001000001
# time :                   85 | monitor_results_stored = 0000000000100001000001
# <-----------------------------PASS----------------------------->
# Driver @ 85 
#  RST = 0 | CE = 1 | MODE = 1 | CMD =  5 | INP_VALID = 2 | CIN = 1 | OPA = 251 | OPB =  53 
# SENDING RESPONSE 
# Monitor @ 115 
#  RST = 0 | CE = 1 | MODE = 1 | CMD =  5 | INP_VALID = 2 | CIN = 1 | OPA = 251 | OPB =  53 |
# Monitor @ 115 
#  RES =     0 | OFLOW = 0 | COUT = 0 | G = 0 | L = 0 | E = 0 | ERR = 1 |
# Scoreboard :reference input: @ 115 
#  RST = 0 | CE = 1 | MODE = 1 | CMD =  5 | INP_VALID = 2 | CIN = 1 | OPA = 251 | OPB =  53 
#  time =                  115 | reference_results_stored = 0000000000000000000001
# time :                  115 | monitor_results_stored = 0000000000000000000001
# <-----------------------------PASS----------------------------->
# Driver @ 115 
#  RST = 0 | CE = 1 | MODE = 0 | CMD = 11 | INP_VALID = 1 | CIN = 1 | OPA = 150 | OPB =  46 
# SENDING RESPONSE 
# Monitor @ 145 
#  RST = 0 | CE = 1 | MODE = 0 | CMD = 11 | INP_VALID = 1 | CIN = 1 | OPA = 150 | OPB =  46 |
# Monitor @ 145 
#  RES =     0 | OFLOW = 0 | COUT = 0 | G = 0 | L = 0 | E = 0 | ERR = 1 |
# Scoreboard :reference input: @ 145 
#  RST = 0 | CE = 1 | MODE = 0 | CMD = 11 | INP_VALID = 1 | CIN = 1 | OPA = 150 | OPB =  46 
#  time =                  145 | reference_results_stored = 0000000000000000000001
# time :                  145 | monitor_results_stored = 0000000000000000000001
# <-----------------------------PASS----------------------------->
# Driver @ 145 
#  RST = 0 | CE = 1 | MODE = 1 | CMD =  8 | INP_VALID = 3 | CIN = 1 | OPA =  17 | OPB =  77 
# SENDING RESPONSE 
# Monitor @ 175 
#  RST = 0 | CE = 1 | MODE = 1 | CMD =  8 | INP_VALID = 3 | CIN = 1 | OPA =  17 | OPB =  77 |
# Monitor @ 175 
#  RES =     0 | OFLOW = 0 | COUT = 0 | G = 0 | L = 1 | E = 0 | ERR = 0 |
# Scoreboard :reference input: @ 175 
#  RST = 0 | CE = 1 | MODE = 1 | CMD =  8 | INP_VALID = 3 | CIN = 1 | OPA =  17 | OPB =  77 
#  time =                  175 | reference_results_stored = 0000000000000000000100
# time :                  175 | monitor_results_stored = 0000000000000000000100
# <-----------------------------PASS----------------------------->
# Driver @ 175 
#  RST = 0 | CE = 1 | MODE = 0 | CMD =  5 | INP_VALID = 3 | CIN = 1 | OPA =  64 | OPB =  25 
# SENDING RESPONSE 
# Monitor @ 205 
#  RST = 0 | CE = 1 | MODE = 0 | CMD =  5 | INP_VALID = 3 | CIN = 1 | OPA =  64 | OPB =  25 |
# Monitor @ 205 
#  RES =   166 | OFLOW = 0 | COUT = 0 | G = 0 | L = 0 | E = 0 | ERR = 0 |
# Scoreboard :reference input: @ 205 
#  RST = 0 | CE = 1 | MODE = 0 | CMD =  5 | INP_VALID = 3 | CIN = 1 | OPA =  64 | OPB =  25 
#  time =                  205 | reference_results_stored = 0000000010100110000000
# time :                  205 | monitor_results_stored = 0000000010100110000000
# <-----------------------------PASS----------------------------->
# Driver @ 205 
#  RST = 0 | CE = 1 | MODE = 1 | CMD =  4 | INP_VALID = 3 | CIN = 0 | OPA =  77 | OPB = 205 
# SENDING RESPONSE 
# Monitor @ 235 
#  RST = 0 | CE = 1 | MODE = 1 | CMD =  4 | INP_VALID = 3 | CIN = 0 | OPA =  77 | OPB = 205 |
# Monitor @ 235 
#  RES =    78 | OFLOW = 0 | COUT = 0 | G = 0 | L = 0 | E = 0 | ERR = 0 |
# Scoreboard :reference input: @ 235 
#  RST = 0 | CE = 1 | MODE = 1 | CMD =  4 | INP_VALID = 3 | CIN = 0 | OPA =  77 | OPB = 205 
#  time =                  235 | reference_results_stored = 0000000000000000000001
# time :                  235 | monitor_results_stored = 0000000001001110000000
# <-----------------------------FAIL----------------------------->
# Driver @ 235 
#  RST = 0 | CE = 1 | MODE = 0 | CMD = 11 | INP_VALID = 0 | CIN = 1 | OPA = 116 | OPB = 234 
# SENDING RESPONSE 
# Monitor @ 265 
#  RST = 0 | CE = 1 | MODE = 0 | CMD = 11 | INP_VALID = 0 | CIN = 1 | OPA = 116 | OPB = 234 |
# Monitor @ 265 
#  RES =     0 | OFLOW = 0 | COUT = 0 | G = 0 | L = 0 | E = 0 | ERR = 1 |
# Scoreboard :reference input: @ 265 
#  RST = 0 | CE = 1 | MODE = 0 | CMD = 11 | INP_VALID = 0 | CIN = 1 | OPA = 116 | OPB = 234 
#  time =                  265 | reference_results_stored = 0000000000000000000001
# time :                  265 | monitor_results_stored = 0000000000000000000001
# <-----------------------------PASS----------------------------->
# Driver @ 265 
#  RST = 0 | CE = 1 | MODE = 1 | CMD =  2 | INP_VALID = 0 | CIN = 0 | OPA =  30 | OPB =  76 
# SENDING RESPONSE 
# Monitor @ 295 
#  RST = 0 | CE = 1 | MODE = 1 | CMD =  2 | INP_VALID = 0 | CIN = 0 | OPA =  30 | OPB =  76 |
# Monitor @ 295 
#  RES =     0 | OFLOW = 0 | COUT = 0 | G = 0 | L = 0 | E = 0 | ERR = 1 |
# Scoreboard :reference input: @ 295 
#  RST = 0 | CE = 1 | MODE = 1 | CMD =  2 | INP_VALID = 0 | CIN = 0 | OPA =  30 | OPB =  76 
#  time =                  295 | reference_results_stored = 0000000000000000000001
# time :                  295 | monitor_results_stored = 0000000000000000000001
# <-----------------------------PASS----------------------------->
# Driver @ 295 
#  RST = 0 | CE = 1 | MODE = 0 | CMD =  0 | INP_VALID = 0 | CIN = 0 | OPA = 209 | OPB =  79 
# SENDING RESPONSE 
# Monitor @ 325 
#  RST = 0 | CE = 1 | MODE = 0 | CMD =  0 | INP_VALID = 0 | CIN = 0 | OPA = 209 | OPB =  79 |
# Monitor @ 325 
#  RES =     0 | OFLOW = 0 | COUT = 0 | G = 0 | L = 0 | E = 0 | ERR = 1 |
# Scoreboard :reference input: @ 325 
#  RST = 0 | CE = 1 | MODE = 0 | CMD =  0 | INP_VALID = 0 | CIN = 0 | OPA = 209 | OPB =  79 
#  time =                  325 | reference_results_stored = 0000000000000000000001
# time :                  325 | monitor_results_stored = 0000000000000000000001
# <-----------------------------PASS----------------------------->
# Driver @ 325 
#  RST = 0 | CE = 1 | MODE = 0 | CMD = 13 | INP_VALID = 3 | CIN = 0 | OPA =   1 | OPB =  11 
# SENDING RESPONSE 
# Monitor @ 355 
#  RST = 0 | CE = 1 | MODE = 0 | CMD = 13 | INP_VALID = 3 | CIN = 0 | OPA =   1 | OPB =  11 |
# Monitor @ 355 
#  RES =    32 | OFLOW = 0 | COUT = 0 | G = 0 | L = 0 | E = 0 | ERR = 0 |
# Scoreboard :reference input: @ 355 
#  RST = 0 | CE = 1 | MODE = 0 | CMD = 13 | INP_VALID = 3 | CIN = 0 | OPA =   1 | OPB =  11 
#  time =                  355 | reference_results_stored = 0000000000100000000000
# time :                  355 | monitor_results_stored = 0000000000100000000000
# <-----------------------------PASS----------------------------->
# Driver @ 355 
#  RST = 0 | CE = 1 | MODE = 0 | CMD = 12 | INP_VALID = 3 | CIN = 0 | OPA =   1 | OPB =  35 
# SENDING RESPONSE 
# Monitor @ 385 
#  RST = 0 | CE = 1 | MODE = 0 | CMD = 12 | INP_VALID = 3 | CIN = 0 | OPA =   1 | OPB =  35 |
# Monitor @ 385 
#  RES =     8 | OFLOW = 0 | COUT = 0 | G = 0 | L = 0 | E = 0 | ERR = 1 |
# Scoreboard :reference input: @ 385 
#  RST = 0 | CE = 1 | MODE = 0 | CMD = 12 | INP_VALID = 3 | CIN = 0 | OPA =   1 | OPB =  35 
#  time =                  385 | reference_results_stored = 0000000000001000000001
# time :                  385 | monitor_results_stored = 0000000000001000000001
# <-----------------------------PASS----------------------------->
#  count =           1 
# Driver @ 385 
#  RST = 0 | CE = 1 | MODE = 1 | CMD =  8 | INP_VALID = 1 | CIN = 1 | OPA =  99 | OPB = 187 
#  count =           2 
# Driver @ 415 
#  RST = 0 | CE = 1 | MODE = 1 | CMD =  8 | INP_VALID = 0 | CIN = 1 | OPA =  27 | OPB = 200 
# Monitor @ 415 
#  RST = 0 | CE = 1 | MODE = 1 | CMD =  8 | INP_VALID = 1 | CIN = 1 | OPA =  99 | OPB = 187 |
# Monitor @ 415 
#  RES =     0 | OFLOW = 0 | COUT = 0 | G = 0 | L = 0 | E = 0 | ERR = 1 |
# Scoreboard :reference input: @ 415 
#  RST = 0 | CE = 1 | MODE = 1 | CMD =  8 | INP_VALID = 0 | CIN = 1 | OPA =  27 | OPB = 200 
#  time =                  415 | reference_results_stored = 0000000000000000000001
# time :                  415 | monitor_results_stored = 0000000000000000000001
# <-----------------------------PASS----------------------------->
#  count =           3 
# Driver @ 445 
#  RST = 0 | CE = 1 | MODE = 1 | CMD =  8 | INP_VALID = 1 | CIN = 0 | OPA = 232 | OPB = 138 
# Monitor @ 445 
#  RST = 0 | CE = 1 | MODE = 1 | CMD =  8 | INP_VALID = 0 | CIN = 1 | OPA =  27 | OPB = 200 |
# Monitor @ 445 
#  RES =     0 | OFLOW = 0 | COUT = 0 | G = 0 | L = 0 | E = 0 | ERR = 1 |
# Scoreboard :reference input: @ 445 
#  RST = 0 | CE = 1 | MODE = 1 | CMD =  8 | INP_VALID = 1 | CIN = 0 | OPA = 232 | OPB = 138 
#  time =                  445 | reference_results_stored = 0000000000000000000001
# time :                  445 | monitor_results_stored = 0000000000000000000001
# <-----------------------------PASS----------------------------->
#  count =           4 
# Driver @ 475 
#  RST = 0 | CE = 1 | MODE = 1 | CMD =  8 | INP_VALID = 2 | CIN = 0 | OPA =  46 | OPB =  53 
# Monitor @ 475 
#  RST = 0 | CE = 1 | MODE = 1 | CMD =  8 | INP_VALID = 1 | CIN = 0 | OPA = 232 | OPB = 138 |
# Monitor @ 475 
#  RES =     0 | OFLOW = 0 | COUT = 0 | G = 0 | L = 0 | E = 0 | ERR = 1 |
# Scoreboard :reference input: @ 475 
#  RST = 0 | CE = 1 | MODE = 1 | CMD =  8 | INP_VALID = 2 | CIN = 0 | OPA =  46 | OPB =  53 
#  time =                  475 | reference_results_stored = 0000000000000000000001
# time :                  475 | monitor_results_stored = 0000000000000000000001
# <-----------------------------PASS----------------------------->
#  count =           5 
# Driver @ 505 
#  RST = 0 | CE = 1 | MODE = 1 | CMD =  8 | INP_VALID = 1 | CIN = 1 | OPA = 220 | OPB = 218 
# Monitor @ 505 
#  RST = 0 | CE = 1 | MODE = 1 | CMD =  8 | INP_VALID = 2 | CIN = 0 | OPA =  46 | OPB =  53 |
# Monitor @ 505 
#  RES =     0 | OFLOW = 0 | COUT = 0 | G = 0 | L = 0 | E = 0 | ERR = 1 |
# Scoreboard :reference input: @ 505 
#  RST = 0 | CE = 1 | MODE = 1 | CMD =  8 | INP_VALID = 1 | CIN = 1 | OPA = 220 | OPB = 218 
#  time =                  505 | reference_results_stored = 0000000000000000000001
# time :                  505 | monitor_results_stored = 0000000000000000000001
# <-----------------------------PASS----------------------------->
#  count =           6 
# Driver @ 535 
#  RST = 0 | CE = 1 | MODE = 1 | CMD =  8 | INP_VALID = 1 | CIN = 1 | OPA =  18 | OPB =   2 
# Monitor @ 535 
#  RST = 0 | CE = 1 | MODE = 1 | CMD =  8 | INP_VALID = 1 | CIN = 1 | OPA = 220 | OPB = 218 |
# Monitor @ 535 
#  RES =     0 | OFLOW = 0 | COUT = 0 | G = 0 | L = 0 | E = 0 | ERR = 1 |
# Scoreboard :reference input: @ 535 
#  RST = 0 | CE = 1 | MODE = 1 | CMD =  8 | INP_VALID = 1 | CIN = 1 | OPA =  18 | OPB =   2 
#  time =                  535 | reference_results_stored = 0000000000000000000001
# time :                  535 | monitor_results_stored = 0000000000000000000001
# <-----------------------------PASS----------------------------->
#  count =           7 
# Driver @ 565 
#  RST = 0 | CE = 1 | MODE = 1 | CMD =  8 | INP_VALID = 1 | CIN = 1 | OPA = 204 | OPB = 132 
# Monitor @ 565 
#  RST = 0 | CE = 1 | MODE = 1 | CMD =  8 | INP_VALID = 1 | CIN = 1 | OPA =  18 | OPB =   2 |
# Monitor @ 565 
#  RES =     0 | OFLOW = 0 | COUT = 0 | G = 0 | L = 0 | E = 0 | ERR = 1 |
# Scoreboard :reference input: @ 565 
#  RST = 0 | CE = 1 | MODE = 1 | CMD =  8 | INP_VALID = 1 | CIN = 1 | OPA = 204 | OPB = 132 
#  time =                  565 | reference_results_stored = 0000000000000000000001
# time :                  565 | monitor_results_stored = 0000000000000000000001
# <-----------------------------PASS----------------------------->
#  count =           8 
# Driver @ 595 
#  RST = 0 | CE = 1 | MODE = 1 | CMD =  8 | INP_VALID = 3 | CIN = 1 | OPA = 251 | OPB = 250 
# Monitor @ 595 
#  RST = 0 | CE = 1 | MODE = 1 | CMD =  8 | INP_VALID = 1 | CIN = 1 | OPA = 204 | OPB = 132 |
# Monitor @ 595 
#  RES =     0 | OFLOW = 0 | COUT = 0 | G = 0 | L = 0 | E = 0 | ERR = 1 |
# Scoreboard :reference input: @ 595 
#  RST = 0 | CE = 1 | MODE = 1 | CMD =  8 | INP_VALID = 3 | CIN = 1 | OPA = 251 | OPB = 250 
#  time =                  595 | reference_results_stored = 0000000000000000001000
# time :                  595 | monitor_results_stored = 0000000000000000000001
# <-----------------------------FAIL----------------------------->
# SENDING RESPONSE 
# Monitor @ 625 
#  RST = 0 | CE = 1 | MODE = 1 | CMD =  8 | INP_VALID = 3 | CIN = 1 | OPA = 251 | OPB = 250 |
# Monitor @ 625 
#  RES =     0 | OFLOW = 0 | COUT = 0 | G = 1 | L = 0 | E = 0 | ERR = 0 |
# Scoreboard :reference input: @ 625 
#  RST = 0 | CE = 1 | MODE = 1 | CMD =  8 | INP_VALID = 3 | CIN = 1 | OPA = 251 | OPB = 250 
#  time =                  625 | reference_results_stored = 0000000000000000001000
# time :                  625 | monitor_results_stored = 0000000000000000001000
# <-----------------------------PASS----------------------------->
#  count =           1 
# Driver @ 625 
#  RST = 0 | CE = 1 | MODE = 0 | CMD = 12 | INP_VALID = 0 | CIN = 1 | OPA = 124 | OPB = 252 
#  count =           2 
# Driver @ 655 
#  RST = 0 | CE = 1 | MODE = 0 | CMD = 12 | INP_VALID = 3 | CIN = 1 | OPA =  99 | OPB = 194 
# Monitor @ 655 
#  RST = 0 | CE = 1 | MODE = 0 | CMD = 12 | INP_VALID = 0 | CIN = 1 | OPA = 124 | OPB = 252 |
# Monitor @ 655 
#  RES =     0 | OFLOW = 0 | COUT = 0 | G = 0 | L = 0 | E = 0 | ERR = 1 |
# Scoreboard :reference input: @ 655 
#  RST = 0 | CE = 1 | MODE = 0 | CMD = 12 | INP_VALID = 3 | CIN = 1 | OPA =  99 | OPB = 194 
#  time =                  655 | reference_results_stored = 0000000010001101000001
# time :                  655 | monitor_results_stored = 0000000000000000000001
# <-----------------------------FAIL----------------------------->
# SENDING RESPONSE 
# Monitor @ 685 
#  RST = 0 | CE = 1 | MODE = 0 | CMD = 12 | INP_VALID = 3 | CIN = 1 | OPA =  99 | OPB = 194 |
# Monitor @ 685 
#  RES =   141 | OFLOW = 0 | COUT = 0 | G = 0 | L = 0 | E = 0 | ERR = 1 |
# Scoreboard :reference input: @ 685 
#  RST = 0 | CE = 1 | MODE = 0 | CMD = 12 | INP_VALID = 3 | CIN = 1 | OPA =  99 | OPB = 194 
#  time =                  685 | reference_results_stored = 0000000010001101000001
# time :                  685 | monitor_results_stored = 0000000010001101000001
# <-----------------------------PASS----------------------------->
# UVM_INFO verilog_src/uvm-1.1d/src/base/uvm_objection.svh(1268) @ 685: reporter [TEST_DONE] 'run' phase is ready to proceed to the 'extract' phase
# UVM_INFO alu_coverage.sv(94) @ 685: uvm_test_top.alu_environment.alu_coverage [alu_coverage] [DRIVER] Coverage ------> 71.32%,
# UVM_INFO alu_coverage.sv(95) @ 685: uvm_test_top.alu_environment.alu_coverage [alu_coverage] [MONITOR] Coverage ------> 75.00%
# 
# --- UVM Report Summary ---
# 
# ** Report counts by severity
# UVM_INFO :    7
# UVM_WARNING :    0
# UVM_ERROR :    0
# UVM_FATAL :    0
# ** Report counts by id
# [Questa UVM]     2
# [RNTST]     1
# [TEST_DONE]     1
# [UVMTOP]     1
# [alu_coverage]     2
# ** Note: $finish    : /tools/mentor/questasim_10.6c/questasim/linux/../verilog_src/uvm-1.1d/src/base/uvm_root.svh(430)
#    Time: 685 ns  Iteration: 67  Instance: /top
# Saving coverage database on exit...
# End time: 17:18:04 on Aug 17,2025, Elapsed time: 0:00:03
# Errors: 0, Warnings: 1
