src/simulation.log
# vsim -vopt work.top -voptargs="+acc=npr" -assertdebug -l simulation.log -coverage -c -do "coverage save -onexit -assert -directive -cvg -codeAll alu_coverage.ucdb; run -all; exit" 
# Start time: 15:50:02 on Aug 16,2025
# ** Note: (vsim-3812) Design is being optimized...
# //  Questa Sim
# //  Version 10.6c linux Jul 25 2017
# //
# //  Copyright 1991-2017 Mentor Graphics Corporation
# //  All Rights Reserved.
# //
# //  QuestaSim and its associated documentation contain trade
# //  secrets and commercial or financial information that are the property of
# //  Mentor Graphics Corporation and are privileged, confidential,
# //  and exempt from disclosure under the Freedom of Information Act,
# //  5 U.S.C. Section 552. Furthermore, this information
# //  is prohibited from disclosure under the Trade Secrets Act,
# //  18 U.S.C. Section 1905.
# //
# Loading sv_std.std
# Loading work.alu_interface(fast)
# Loading mtiUvm.uvm_pkg
# Loading work.alu_pkg(fast)
# Loading work.alu_top_sv_unit(fast)
# Loading work.top(fast)
# Loading work.alu_interface(fast)
# Loading work.alu_design(fast)
# Loading mtiUvm.questa_uvm_pkg(fast)
# Loading /tools/mentor/questasim_10.6c/questasim/uvm-1.1d/linux/uvm_dpi.so
# ** Warning: (vsim-8634) Code was not compiled with coverage options.
# coverage save -onexit -assert -directive -cvg -codeAll alu_coverage.ucdb
#  run -all
# ----------------------------------------------------------------
# UVM-1.1d
# (C) 2007-2013 Mentor Graphics Corporation
# (C) 2007-2013 Cadence Design Systems, Inc.
# (C) 2006-2013 Synopsys, Inc.
# (C) 2011-2013 Cypress Semiconductor Corp.
# ----------------------------------------------------------------
# 
#   ***********       IMPORTANT RELEASE NOTES         ************
# 
#   You are using a version of the UVM library that has been compiled
#   with `UVM_NO_DEPRECATED undefined.
#   See http://www.eda.org/svdb/view.php?id=3313 for more details.
# 
#   You are using a version of the UVM library that has been compiled
#   with `UVM_OBJECT_MUST_HAVE_CONSTRUCTOR undefined.
#   See http://www.eda.org/svdb/view.php?id=3770 for more details.
# 
#       (Specify +UVM_NO_RELNOTES to turn off this notice)
# 
# UVM_INFO verilog_src/questa_uvm_pkg-1.2/src/questa_uvm_pkg.sv(215) @ 0: reporter [Questa UVM] QUESTA_UVM-1.2.3
# UVM_INFO verilog_src/questa_uvm_pkg-1.2/src/questa_uvm_pkg.sv(217) @ 0: reporter [Questa UVM]  questa_uvm::init(+struct)
# UVM_INFO @ 0: reporter [RNTST] Running test alu_test...
# UVM_INFO @ 0: reporter [UVMTOP] UVM testbench topology:
# -----------------------------------------------------------------
# Name                       Type                       Size  Value
# -----------------------------------------------------------------
# uvm_test_top               alu_test                   -     @471 
#   alu_environment          alu_environment            -     @478 
#     alu_agent              alu_agent                  -     @489 
#       alu_driv             alu_driver                 -     @527 
#         driv_port          uvm_analysis_port          -     @550 
#         rsp_port           uvm_analysis_port          -     @542 
#         seq_item_port      uvm_seq_item_pull_port     -     @534 
#       alu_mon              alu_monitor                -     @667 
#         mon_port           uvm_analysis_port          -     @674 
#       alu_seqr             alu_sequencer              -     @558 
#         rsp_export         uvm_analysis_export        -     @565 
#         seq_item_export    uvm_seq_item_pull_imp      -     @659 
#         arbitration_queue  array                      0     -    
#         lock_queue         array                      0     -    
#         num_last_reqs      integral                   32    'd1  
#         num_last_rsps      integral                   32    'd1  
#     alu_coverage           alu_coverage               -     @503 
#       cov_driv_port        uvm_analysis_imp_driv_cg   -     @510 
#       cov_mon_port         uvm_analysis_imp_mon_cg    -     @518 
#     alu_scoreboard         alu_scoreboard             -     @496 
#       driv_scb_port        uvm_analysis_imp_driv_scb  -     @693 
#       mon_scb_port         uvm_analysis_imp_mon_scb   -     @701 
# -----------------------------------------------------------------
# 
#  count =           1 
# Driver @ 0 
#  RST = 0 | CE = 1 | MODE = 0 | CMD =  5 | INP_VALID = 3 | CIN = 1 | OPA =  48 | OPB = 164 
# SENDING RESPONSE 
# Monitor @ 25 
#  RST = 0 | CE = 1 | MODE = 0 | CMD =  5 | INP_VALID = 3 | CIN = 1 | OPA =  48 | OPB = 164 |
# Monitor @ 25 
#  RES =     0 | OFLOW = 0 | COUT = 0 | G = 0 | L = 0 | E = 0 | ERR = 1 |
# Scoreboard :reference input: @ 25 
#  RST = 0 | CE = 1 | MODE = 0 | CMD =  5 | INP_VALID = 3 | CIN = 1 | OPA =  48 | OPB = 164 
#  time =                   25 | reference_results_stored = 0000000001101011000000
# time :                   25 | monitor_results_stored = 0000000000000000000001
# <-----------------------------FAIL----------------------------->
# Driver @ 25 
#  RST = 0 | CE = 1 | MODE = 1 | CMD =  7 | INP_VALID = 2 | CIN = 0 | OPA = 190 | OPB = 111 
# SENDING RESPONSE 
# Monitor @ 55 
#  RST = 0 | CE = 1 | MODE = 1 | CMD =  7 | INP_VALID = 2 | CIN = 0 | OPA = 190 | OPB = 111 |
# Monitor @ 55 
#  RES =   110 | OFLOW = 0 | COUT = 0 | G = 0 | L = 0 | E = 0 | ERR = 0 |
# Scoreboard :reference input: @ 55 
#  RST = 0 | CE = 1 | MODE = 1 | CMD =  7 | INP_VALID = 2 | CIN = 0 | OPA = 190 | OPB = 111 
#  time =                   55 | reference_results_stored = 0000000001101110000000
# time :                   55 | monitor_results_stored = 0000000001101110000000
# <-----------------------------PASS----------------------------->
#  count =           1 
# Driver @ 55 
#  RST = 0 | CE = 1 | MODE = 0 | CMD =  3 | INP_VALID = 3 | CIN = 1 | OPA = 112 | OPB =  61 
# SENDING RESPONSE 
# Monitor @ 85 
#  RST = 0 | CE = 1 | MODE = 0 | CMD =  3 | INP_VALID = 3 | CIN = 1 | OPA = 112 | OPB =  61 |
# Monitor @ 85 
#  RES =   130 | OFLOW = 0 | COUT = 0 | G = 0 | L = 0 | E = 0 | ERR = 0 |
# Scoreboard :reference input: @ 85 
#  RST = 0 | CE = 1 | MODE = 0 | CMD =  3 | INP_VALID = 3 | CIN = 1 | OPA = 112 | OPB =  61 
#  time =                   85 | reference_results_stored = 0000000010000010000000
# time :                   85 | monitor_results_stored = 0000000010000010000000
# <-----------------------------PASS----------------------------->
#  count =           1 
# Driver @ 85 
#  RST = 0 | CE = 1 | MODE = 1 | CMD =  1 | INP_VALID = 3 | CIN = 0 | OPA = 231 | OPB = 216 
# SENDING RESPONSE 
# Monitor @ 115 
#  RST = 0 | CE = 1 | MODE = 1 | CMD =  1 | INP_VALID = 3 | CIN = 0 | OPA = 231 | OPB = 216 |
# Monitor @ 115 
#  RES =    15 | OFLOW = 0 | COUT = 0 | G = 0 | L = 0 | E = 0 | ERR = 0 |
# Scoreboard :reference input: @ 115 
#  RST = 0 | CE = 1 | MODE = 1 | CMD =  1 | INP_VALID = 3 | CIN = 0 | OPA = 231 | OPB = 216 
#  time =                  115 | reference_results_stored = 0000000000001111000000
# time :                  115 | monitor_results_stored = 0000000000001111000000
# <-----------------------------PASS----------------------------->
# Driver @ 115 
#  RST = 0 | CE = 1 | MODE = 1 | CMD =  5 | INP_VALID = 3 | CIN = 0 | OPA = 165 | OPB = 218 
# SENDING RESPONSE 
# Monitor @ 145 
#  RST = 0 | CE = 1 | MODE = 1 | CMD =  5 | INP_VALID = 3 | CIN = 0 | OPA = 165 | OPB = 218 |
# Monitor @ 145 
#  RES =   164 | OFLOW = 0 | COUT = 0 | G = 0 | L = 0 | E = 0 | ERR = 0 |
# Scoreboard :reference input: @ 145 
#  RST = 0 | CE = 1 | MODE = 1 | CMD =  5 | INP_VALID = 3 | CIN = 0 | OPA = 165 | OPB = 218 
#  time =                  145 | reference_results_stored = 0000000000000000000001
# time :                  145 | monitor_results_stored = 0000000010100100000000
# <-----------------------------FAIL----------------------------->
# Driver @ 145 
#  RST = 0 | CE = 1 | MODE = 0 | CMD = 10 | INP_VALID = 3 | CIN = 1 | OPA =  22 | OPB = 171 
# SENDING RESPONSE 
# Monitor @ 175 
#  RST = 0 | CE = 1 | MODE = 0 | CMD = 10 | INP_VALID = 3 | CIN = 1 | OPA =  22 | OPB = 171 |
# Monitor @ 175 
#  RES =    85 | OFLOW = 0 | COUT = 0 | G = 0 | L = 0 | E = 0 | ERR = 0 |
# Scoreboard :reference input: @ 175 
#  RST = 0 | CE = 1 | MODE = 0 | CMD = 10 | INP_VALID = 3 | CIN = 1 | OPA =  22 | OPB = 171 
#  time =                  175 | reference_results_stored = 0000000000000000000001
# time :                  175 | monitor_results_stored = 0000000001010101000000
# <-----------------------------FAIL----------------------------->
# Driver @ 175 
#  RST = 0 | CE = 1 | MODE = 1 | CMD =  1 | INP_VALID = 3 | CIN = 1 | OPA =  20 | OPB = 190 
# SENDING RESPONSE 
# Monitor @ 205 
#  RST = 0 | CE = 1 | MODE = 1 | CMD =  1 | INP_VALID = 3 | CIN = 1 | OPA =  20 | OPB = 190 |
# Monitor @ 205 
#  RES =   342 | OFLOW = 1 | COUT = 0 | G = 0 | L = 0 | E = 0 | ERR = 0 |
# Scoreboard :reference input: @ 205 
#  RST = 0 | CE = 1 | MODE = 1 | CMD =  1 | INP_VALID = 3 | CIN = 1 | OPA =  20 | OPB = 190 
#  time =                  205 | reference_results_stored = 0000000101010110100000
# time :                  205 | monitor_results_stored = 0000000101010110100000
# <-----------------------------PASS----------------------------->
# Driver @ 205 
#  RST = 0 | CE = 1 | MODE = 1 | CMD =  3 | INP_VALID = 3 | CIN = 1 | OPA =  74 | OPB = 157 
# SENDING RESPONSE 
# Monitor @ 235 
#  RST = 0 | CE = 1 | MODE = 1 | CMD =  3 | INP_VALID = 3 | CIN = 1 | OPA =  74 | OPB = 157 |
# Monitor @ 235 
#  RES =   428 | OFLOW = 1 | COUT = 0 | G = 0 | L = 0 | E = 0 | ERR = 0 |
# Scoreboard :reference input: @ 235 
#  RST = 0 | CE = 1 | MODE = 1 | CMD =  3 | INP_VALID = 3 | CIN = 1 | OPA =  74 | OPB = 157 
#  time =                  235 | reference_results_stored = 0000000110101100100000
# time :                  235 | monitor_results_stored = 0000000110101100100000
# <-----------------------------PASS----------------------------->
#  count =           1 
# Driver @ 235 
#  RST = 0 | CE = 1 | MODE = 1 | CMD =  1 | INP_VALID = 1 | CIN = 1 | OPA = 190 | OPB = 162 
#  count =           2 
# Driver @ 265 
#  RST = 0 | CE = 1 | MODE = 1 | CMD =  1 | INP_VALID = 2 | CIN = 0 | OPA = 221 | OPB = 229 
# Monitor @ 265 
#  RST = 0 | CE = 1 | MODE = 1 | CMD =  1 | INP_VALID = 1 | CIN = 1 | OPA = 190 | OPB = 162 |
# Monitor @ 265 
#  RES =     0 | OFLOW = 0 | COUT = 0 | G = 0 | L = 0 | E = 0 | ERR = 1 |
# Scoreboard :reference input: @ 265 
#  RST = 0 | CE = 1 | MODE = 1 | CMD =  1 | INP_VALID = 2 | CIN = 0 | OPA = 221 | OPB = 229 
#  time =                  265 | reference_results_stored = 0000000000000000000001
# time :                  265 | monitor_results_stored = 0000000000000000000001
# <-----------------------------PASS----------------------------->
#  count =           3 
# Driver @ 295 
#  RST = 0 | CE = 1 | MODE = 1 | CMD =  1 | INP_VALID = 2 | CIN = 0 | OPA =  19 | OPB = 179 
# Monitor @ 295 
#  RST = 0 | CE = 1 | MODE = 1 | CMD =  1 | INP_VALID = 2 | CIN = 0 | OPA = 221 | OPB = 229 |
# Monitor @ 295 
#  RES =     0 | OFLOW = 1 | COUT = 0 | G = 0 | L = 0 | E = 0 | ERR = 1 |
# Scoreboard :reference input: @ 295 
#  RST = 0 | CE = 1 | MODE = 1 | CMD =  1 | INP_VALID = 2 | CIN = 0 | OPA =  19 | OPB = 179 
#  time =                  295 | reference_results_stored = 0000000000000000000001
# time :                  295 | monitor_results_stored = 0000000000000000100001
# <-----------------------------FAIL----------------------------->
#  count =           4 
# Driver @ 325 
#  RST = 0 | CE = 1 | MODE = 1 | CMD =  1 | INP_VALID = 3 | CIN = 0 | OPA =  76 | OPB = 201 
# Monitor @ 325 
#  RST = 0 | CE = 1 | MODE = 1 | CMD =  1 | INP_VALID = 2 | CIN = 0 | OPA =  19 | OPB = 179 |
# Monitor @ 325 
#  RES =     0 | OFLOW = 1 | COUT = 0 | G = 0 | L = 0 | E = 0 | ERR = 1 |
# Scoreboard :reference input: @ 325 
#  RST = 0 | CE = 1 | MODE = 1 | CMD =  1 | INP_VALID = 3 | CIN = 0 | OPA =  76 | OPB = 201 
#  time =                  325 | reference_results_stored = 0000000110000011100000
# time :                  325 | monitor_results_stored = 0000000000000000100001
# <-----------------------------FAIL----------------------------->
# SENDING RESPONSE 
# Monitor @ 355 
#  RST = 0 | CE = 1 | MODE = 1 | CMD =  1 | INP_VALID = 3 | CIN = 0 | OPA =  76 | OPB = 201 |
# Monitor @ 355 
#  RES =   387 | OFLOW = 1 | COUT = 0 | G = 0 | L = 0 | E = 0 | ERR = 0 |
# Scoreboard :reference input: @ 355 
#  RST = 0 | CE = 1 | MODE = 1 | CMD =  1 | INP_VALID = 3 | CIN = 0 | OPA =  76 | OPB = 201 
#  time =                  355 | reference_results_stored = 0000000110000011100000
# time :                  355 | monitor_results_stored = 0000000110000011100000
# <-----------------------------PASS----------------------------->
#  count =           1 
# Driver @ 355 
#  RST = 0 | CE = 1 | MODE = 0 | CMD =  2 | INP_VALID = 2 | CIN = 0 | OPA = 160 | OPB = 197 
#  count =           2 
# Driver @ 385 
#  RST = 0 | CE = 1 | MODE = 0 | CMD =  2 | INP_VALID = 1 | CIN = 1 | OPA = 177 | OPB = 131 
# Monitor @ 385 
#  RST = 0 | CE = 1 | MODE = 0 | CMD =  2 | INP_VALID = 2 | CIN = 0 | OPA = 160 | OPB = 197 |
# Monitor @ 385 
#  RES =     0 | OFLOW = 0 | COUT = 0 | G = 0 | L = 0 | E = 0 | ERR = 1 |
# Scoreboard :reference input: @ 385 
#  RST = 0 | CE = 1 | MODE = 0 | CMD =  2 | INP_VALID = 1 | CIN = 1 | OPA = 177 | OPB = 131 
#  time =                  385 | reference_results_stored = 0000000000000000000001
# time :                  385 | monitor_results_stored = 0000000000000000000001
# <-----------------------------PASS----------------------------->
#  count =           3 
# Driver @ 415 
#  RST = 0 | CE = 1 | MODE = 0 | CMD =  2 | INP_VALID = 2 | CIN = 1 | OPA = 120 | OPB = 152 
# Monitor @ 415 
#  RST = 0 | CE = 1 | MODE = 0 | CMD =  2 | INP_VALID = 1 | CIN = 1 | OPA = 177 | OPB = 131 |
# Monitor @ 415 
#  RES =     0 | OFLOW = 0 | COUT = 0 | G = 0 | L = 0 | E = 0 | ERR = 1 |
# Scoreboard :reference input: @ 415 
#  RST = 0 | CE = 1 | MODE = 0 | CMD =  2 | INP_VALID = 2 | CIN = 1 | OPA = 120 | OPB = 152 
#  time =                  415 | reference_results_stored = 0000000000000000000001
# time :                  415 | monitor_results_stored = 0000000000000000000001
# <-----------------------------PASS----------------------------->
#  count =           4 
# Driver @ 445 
#  RST = 0 | CE = 1 | MODE = 0 | CMD =  2 | INP_VALID = 2 | CIN = 1 | OPA =  31 | OPB =  18 
# Monitor @ 445 
#  RST = 0 | CE = 1 | MODE = 0 | CMD =  2 | INP_VALID = 2 | CIN = 1 | OPA = 120 | OPB = 152 |
# Monitor @ 445 
#  RES =     0 | OFLOW = 0 | COUT = 0 | G = 0 | L = 0 | E = 0 | ERR = 1 |
# Scoreboard :reference input: @ 445 
#  RST = 0 | CE = 1 | MODE = 0 | CMD =  2 | INP_VALID = 2 | CIN = 1 | OPA =  31 | OPB =  18 
#  time =                  445 | reference_results_stored = 0000000000000000000001
# time :                  445 | monitor_results_stored = 0000000000000000000001
# <-----------------------------PASS----------------------------->
#  count =           5 
# Driver @ 475 
#  RST = 0 | CE = 1 | MODE = 0 | CMD =  2 | INP_VALID = 3 | CIN = 1 | OPA = 225 | OPB =  84 
# Monitor @ 475 
#  RST = 0 | CE = 1 | MODE = 0 | CMD =  2 | INP_VALID = 2 | CIN = 1 | OPA =  31 | OPB =  18 |
# Monitor @ 475 
#  RES =     0 | OFLOW = 0 | COUT = 0 | G = 0 | L = 0 | E = 0 | ERR = 1 |
# Scoreboard :reference input: @ 475 
#  RST = 0 | CE = 1 | MODE = 0 | CMD =  2 | INP_VALID = 3 | CIN = 1 | OPA = 225 | OPB =  84 
#  time =                  475 | reference_results_stored = 0000000011110101000000
# time :                  475 | monitor_results_stored = 0000000000000000000001
# <-----------------------------FAIL----------------------------->
# SENDING RESPONSE 
# Monitor @ 505 
#  RST = 0 | CE = 1 | MODE = 0 | CMD =  2 | INP_VALID = 3 | CIN = 1 | OPA = 225 | OPB =  84 |
# Monitor @ 505 
#  RES =   245 | OFLOW = 0 | COUT = 0 | G = 0 | L = 0 | E = 0 | ERR = 0 |
# Scoreboard :reference input: @ 505 
#  RST = 0 | CE = 1 | MODE = 0 | CMD =  2 | INP_VALID = 3 | CIN = 1 | OPA = 225 | OPB =  84 
#  time =                  505 | reference_results_stored = 0000000011110101000000
# time :                  505 | monitor_results_stored = 0000000011110101000000
# <-----------------------------PASS----------------------------->
# Driver @ 505 
#  RST = 0 | CE = 1 | MODE = 1 | CMD =  7 | INP_VALID = 3 | CIN = 0 | OPA = 116 | OPB = 215 
# SENDING RESPONSE 
# Monitor @ 535 
#  RST = 0 | CE = 1 | MODE = 1 | CMD =  7 | INP_VALID = 3 | CIN = 0 | OPA = 116 | OPB = 215 |
# Monitor @ 535 
#  RES =   214 | OFLOW = 0 | COUT = 0 | G = 0 | L = 0 | E = 0 | ERR = 0 |
# Scoreboard :reference input: @ 535 
#  RST = 0 | CE = 1 | MODE = 1 | CMD =  7 | INP_VALID = 3 | CIN = 0 | OPA = 116 | OPB = 215 
#  time =                  535 | reference_results_stored = 0000000000000000000001
# time :                  535 | monitor_results_stored = 0000000011010110000000
# <-----------------------------FAIL----------------------------->
#  count =           1 
# Driver @ 535 
#  RST = 0 | CE = 1 | MODE = 1 | CMD =  3 | INP_VALID = 3 | CIN = 1 | OPA = 152 | OPB = 174 
# SENDING RESPONSE 
# Monitor @ 565 
#  RST = 0 | CE = 1 | MODE = 1 | CMD =  3 | INP_VALID = 3 | CIN = 1 | OPA = 152 | OPB = 174 |
# Monitor @ 565 
#  RES =   489 | OFLOW = 1 | COUT = 0 | G = 0 | L = 0 | E = 0 | ERR = 0 |
# Scoreboard :reference input: @ 565 
#  RST = 0 | CE = 1 | MODE = 1 | CMD =  3 | INP_VALID = 3 | CIN = 1 | OPA = 152 | OPB = 174 
#  time =                  565 | reference_results_stored = 0000000111101001100000
# time :                  565 | monitor_results_stored = 0000000111101001100000
# <-----------------------------PASS----------------------------->
#  count =           1 
# Driver @ 565 
#  RST = 0 | CE = 1 | MODE = 1 | CMD =  2 | INP_VALID = 1 | CIN = 0 | OPA = 188 | OPB = 232 
#  count =           2 
# Driver @ 595 
#  RST = 0 | CE = 1 | MODE = 1 | CMD =  2 | INP_VALID = 1 | CIN = 1 | OPA =  98 | OPB = 121 
# Monitor @ 595 
#  RST = 0 | CE = 1 | MODE = 1 | CMD =  2 | INP_VALID = 1 | CIN = 0 | OPA = 188 | OPB = 232 |
# Monitor @ 595 
#  RES =     0 | OFLOW = 0 | COUT = 0 | G = 0 | L = 0 | E = 0 | ERR = 1 |
# Scoreboard :reference input: @ 595 
#  RST = 0 | CE = 1 | MODE = 1 | CMD =  2 | INP_VALID = 1 | CIN = 1 | OPA =  98 | OPB = 121 
#  time =                  595 | reference_results_stored = 0000000000000000000001
# time :                  595 | monitor_results_stored = 0000000000000000000001
# <-----------------------------PASS----------------------------->
#  count =           3 
# Driver @ 625 
#  RST = 0 | CE = 1 | MODE = 1 | CMD =  2 | INP_VALID = 1 | CIN = 0 | OPA = 160 | OPB =  11 
# Monitor @ 625 
#  RST = 0 | CE = 1 | MODE = 1 | CMD =  2 | INP_VALID = 1 | CIN = 1 | OPA =  98 | OPB = 121 |
# Monitor @ 625 
#  RES =     0 | OFLOW = 0 | COUT = 0 | G = 0 | L = 0 | E = 0 | ERR = 1 |
# Scoreboard :reference input: @ 625 
#  RST = 0 | CE = 1 | MODE = 1 | CMD =  2 | INP_VALID = 1 | CIN = 0 | OPA = 160 | OPB =  11 
#  time =                  625 | reference_results_stored = 0000000000000000000001
# time :                  625 | monitor_results_stored = 0000000000000000000001
# <-----------------------------PASS----------------------------->
#  count =           4 
# Driver @ 655 
#  RST = 0 | CE = 1 | MODE = 1 | CMD =  2 | INP_VALID = 2 | CIN = 1 | OPA = 120 | OPB = 105 
# Monitor @ 655 
#  RST = 0 | CE = 1 | MODE = 1 | CMD =  2 | INP_VALID = 1 | CIN = 0 | OPA = 160 | OPB =  11 |
# Monitor @ 655 
#  RES =     0 | OFLOW = 0 | COUT = 0 | G = 0 | L = 0 | E = 0 | ERR = 1 |
# Scoreboard :reference input: @ 655 
#  RST = 0 | CE = 1 | MODE = 1 | CMD =  2 | INP_VALID = 2 | CIN = 1 | OPA = 120 | OPB = 105 
#  time =                  655 | reference_results_stored = 0000000000000000000001
# time :                  655 | monitor_results_stored = 0000000000000000000001
# <-----------------------------PASS----------------------------->
#  count =           5 
# Driver @ 685 
#  RST = 0 | CE = 1 | MODE = 1 | CMD =  2 | INP_VALID = 3 | CIN = 1 | OPA = 167 | OPB = 223 
# Monitor @ 685 
#  RST = 0 | CE = 1 | MODE = 1 | CMD =  2 | INP_VALID = 2 | CIN = 1 | OPA = 120 | OPB = 105 |
# Monitor @ 685 
#  RES =     0 | OFLOW = 0 | COUT = 0 | G = 0 | L = 0 | E = 0 | ERR = 1 |
# ref_res = 391 | ref_cout = 1 
# Scoreboard :reference input: @ 685 
#  RST = 0 | CE = 1 | MODE = 1 | CMD =  2 | INP_VALID = 3 | CIN = 1 | OPA = 167 | OPB = 223 
#  time =                  685 | reference_results_stored = 0000000110000111010000
# time :                  685 | monitor_results_stored = 0000000000000000000001
# <-----------------------------FAIL----------------------------->
# SENDING RESPONSE 
# Monitor @ 715 
#  RST = 0 | CE = 1 | MODE = 1 | CMD =  2 | INP_VALID = 3 | CIN = 1 | OPA = 167 | OPB = 223 |
# Monitor @ 715 
#  RES =   391 | OFLOW = 0 | COUT = 1 | G = 0 | L = 0 | E = 0 | ERR = 0 |
# ref_res = 391 | ref_cout = 1 
# Scoreboard :reference input: @ 715 
#  RST = 0 | CE = 1 | MODE = 1 | CMD =  2 | INP_VALID = 3 | CIN = 1 | OPA = 167 | OPB = 223 
#  time =                  715 | reference_results_stored = 0000000110000111010000
# time :                  715 | monitor_results_stored = 0000000110000111010000
# <-----------------------------PASS----------------------------->
# Driver @ 715 
#  RST = 0 | CE = 1 | MODE = 0 | CMD = 12 | INP_VALID = 3 | CIN = 1 | OPA = 176 | OPB = 149 
# SENDING RESPONSE 
# Monitor @ 745 
#  RST = 0 | CE = 1 | MODE = 0 | CMD = 12 | INP_VALID = 3 | CIN = 1 | OPA = 176 | OPB = 149 |
# Monitor @ 745 
#  RES =    22 | OFLOW = 0 | COUT = 0 | G = 0 | L = 0 | E = 0 | ERR = 1 |
# Scoreboard :reference input: @ 745 
#  RST = 0 | CE = 1 | MODE = 0 | CMD = 12 | INP_VALID = 3 | CIN = 1 | OPA = 176 | OPB = 149 
#  time =                  745 | reference_results_stored = 0000000000010110000001
# time :                  745 | monitor_results_stored = 0000000000010110000001
# <-----------------------------PASS----------------------------->
# Driver @ 745 
#  RST = 0 | CE = 1 | MODE = 0 | CMD = 12 | INP_VALID = 3 | CIN = 1 | OPA = 248 | OPB =  36 
# SENDING RESPONSE 
# Monitor @ 775 
#  RST = 0 | CE = 1 | MODE = 0 | CMD = 12 | INP_VALID = 3 | CIN = 1 | OPA = 248 | OPB =  36 |
# Monitor @ 775 
#  RES =   143 | OFLOW = 0 | COUT = 0 | G = 0 | L = 0 | E = 0 | ERR = 1 |
# Scoreboard :reference input: @ 775 
#  RST = 0 | CE = 1 | MODE = 0 | CMD = 12 | INP_VALID = 3 | CIN = 1 | OPA = 248 | OPB =  36 
#  time =                  775 | reference_results_stored = 0000000010001111000001
# time :                  775 | monitor_results_stored = 0000000010001111000001
# <-----------------------------PASS----------------------------->
# UVM_INFO verilog_src/uvm-1.1d/src/base/uvm_objection.svh(1268) @ 775: reporter [TEST_DONE] 'run' phase is ready to proceed to the 'extract' phase
# UVM_INFO alu_coverage.sv(94) @ 775: uvm_test_top.alu_environment.alu_coverage [alu_coverage] [DRIVER] Coverage ------> 60.07%,
# UVM_INFO alu_coverage.sv(95) @ 775: uvm_test_top.alu_environment.alu_coverage [alu_coverage] [MONITOR] Coverage ------> 75.00%
# 
# --- UVM Report Summary ---
# 
# ** Report counts by severity
# UVM_INFO :    7
# UVM_WARNING :    0
# UVM_ERROR :    0
# UVM_FATAL :    0
# ** Report counts by id
# [Questa UVM]     2
# [RNTST]     1
# [TEST_DONE]     1
# [UVMTOP]     1
# [alu_coverage]     2
# ** Note: $finish    : /tools/mentor/questasim_10.6c/questasim/linux/../verilog_src/uvm-1.1d/src/base/uvm_root.svh(430)
#    Time: 775 ns  Iteration: 63  Instance: /top
# Saving coverage database on exit...
# End time: 15:50:06 on Aug 16,2025, Elapsed time: 0:00:04
# Errors: 0, Warnings: 1
